Verilog/Decoder_2_to_4_with_Enable/Decoder_2_to_4_with_Enable_tb.vcd
$date
	Sat May 18 13:58:46 2024
$end
$version
	Icarus Verilog
$end
$timescale
	1s
$end
$scope module decoder_2to4_with_enable_tb $end
$var wire 1 ! Y3 $end
$var wire 1 " Y2 $end
$var wire 1 # Y1 $end
$var wire 1 $ Y0 $end
$var reg 1 % A $end
$var reg 1 & B $end
$var reg 1 ' E $end
$scope module uut $end
$var wire 1 % A $end
$var wire 1 & B $end
$var wire 1 ' E $end
$var wire 1 $ Y0 $end
$var wire 1 # Y1 $end
$var wire 1 " Y2 $end
$var wire 1 ! Y3 $end
$upscope $end
$upscope $end
$enddefinitions $end
$comment Show the parameter values. $end
$dumpall
$end
#0
$dumpvars
0'
0&
0%
0$
0#
0"
0!
$end
#10
1&
#20
0&
1%
#30
1&
#40
1$
0&
0%
1'
#50
0$
1#
1&
#60
1"
0#
0&
1%
#70
0"
1!
1&
